{
    "name": "AnalysisBase",
    "dockerFile": "Dockerfile",

    "runArgs": [
        "-v", "${localWorkspaceFolder}:${localWorkspaceFolder}:delegated",
        "-e", "WORK=${localWorkspaceFolder}",
        "-e", "DISPLAY=host.docker.internal:0"
    ],
    "workspaceFolder": "${localWorkspaceFolder}",

    "settings": {
        "terminal.integrated.shell.linux": "/bin/bash",
        "terminal.integrated.shellArgs.linux": ["--init-file","${localWorkspaceFolder}/profile.sh"],
        "python.envFile": "${localWorkspaceFolder}/build/env.txt",
        "python.linting.enabled": true,
        "python.linting.pylintEnabled": false,
        "python.linting.flake8Enabled": true,
        "python.linting.flake8Args": [
            "--select=ATL,F,E7,E9,W6",
            "--enable-extension=ATL902"
        ]
    },

    "extensions": [
        "ms-vscode.cpptools",
        "ms-python.python",
        "twxs.cmake"
    ]
}

